/* XPM */
static char * top_right_active_xpm[] = {
"2 26 4 1",
" 	c None",
".	c #ebcb8b",
"+	c #ebcb8b",
"@	c #131b29",
". ",
"+.",
"@.",
"@.",
"@.",
"@.",
"@.",
"@.",
"@.",
"@.",
"@.",
"@.",
"@.",
"@.",
"@.",
"@.",
"@.",
"@.",
"@.",
"@.",
"@.",
"@.",
"@.",
"@.",
"@.",
"@."};
